^C:\USERS\PAUL VAN VULPEN\DROPBOX\WORKSPACE\C++\VLIEGENDEKEEP\SOURCE\KBS_PROJECT_THOMAS_PAUL_TOM\USB2-C++\BALLDETECTION.CPP
/c /I"libusb-win32-bin-1.2.6.0\include" /IC:\OpenCV248\opencv\build\include /ZI /nologo /W3 /WX- /Od /Oy- /D WIN32 /D _DEBUG /D _CONSOLE /D _UNICODE /D UNICODE /Gm /EHsc /RTC1 /MDd /GS /fp:precise /Zc:wchar_t /Zc:forScope /Fo"DEBUG\\" /Fd"DEBUG\VC120.PDB" /Gd /TP /analyze- C:\USERS\PAUL VAN VULPEN\DROPBOX\WORKSPACE\C++\VLIEGENDEKEEP\SOURCE\KBS_PROJECT_THOMAS_PAUL_TOM\USB2-C++\BALLDETECTION.CPP
^C:\USERS\PAUL VAN VULPEN\DROPBOX\WORKSPACE\C++\VLIEGENDEKEEP\SOURCE\KBS_PROJECT_THOMAS_PAUL_TOM\USB2-C++\MAIN.CPP
/c /I"libusb-win32-bin-1.2.6.0\include" /IC:\OpenCV248\opencv\build\include /ZI /nologo /W3 /WX- /Od /Oy- /D WIN32 /D _DEBUG /D _CONSOLE /D _UNICODE /D UNICODE /Gm /EHsc /RTC1 /MDd /GS /fp:precise /Zc:wchar_t /Zc:forScope /Fo"DEBUG\\" /Fd"DEBUG\VC120.PDB" /Gd /TP /analyze- C:\USERS\PAUL VAN VULPEN\DROPBOX\WORKSPACE\C++\VLIEGENDEKEEP\SOURCE\KBS_PROJECT_THOMAS_PAUL_TOM\USB2-C++\MAIN.CPP
^C:\USERS\PAUL VAN VULPEN\DROPBOX\WORKSPACE\C++\VLIEGENDEKEEP\SOURCE\KBS_PROJECT_THOMAS_PAUL_TOM\USB2-C++\SOURCE.CPP
/c /I"libusb-win32-bin-1.2.6.0\include" /IC:\OpenCV248\opencv\build\include /ZI /nologo /W3 /WX- /Od /Oy- /D WIN32 /D _DEBUG /D _CONSOLE /D _UNICODE /D UNICODE /Gm /EHsc /RTC1 /MDd /GS /fp:precise /Zc:wchar_t /Zc:forScope /Fo"DEBUG\\" /Fd"DEBUG\VC120.PDB" /Gd /TP /analyze- C:\USERS\PAUL VAN VULPEN\DROPBOX\WORKSPACE\C++\VLIEGENDEKEEP\SOURCE\KBS_PROJECT_THOMAS_PAUL_TOM\USB2-C++\SOURCE.CPP
^C:\USERS\PAUL VAN VULPEN\DROPBOX\WORKSPACE\C++\VLIEGENDEKEEP\SOURCE\KBS_PROJECT_THOMAS_PAUL_TOM\USB2-C++\STDAFX.CPP
/c /I"libusb-win32-bin-1.2.6.0\include" /IC:\OpenCV248\opencv\build\include /ZI /nologo /W3 /WX- /Od /Oy- /D WIN32 /D _DEBUG /D _CONSOLE /D _UNICODE /D UNICODE /Gm /EHsc /RTC1 /MDd /GS /fp:precise /Zc:wchar_t /Zc:forScope /Fo"DEBUG\\" /Fd"DEBUG\VC120.PDB" /Gd /TP /analyze- C:\USERS\PAUL VAN VULPEN\DROPBOX\WORKSPACE\C++\VLIEGENDEKEEP\SOURCE\KBS_PROJECT_THOMAS_PAUL_TOM\USB2-C++\STDAFX.CPP
^C:\USERS\PAUL VAN VULPEN\DROPBOX\WORKSPACE\C++\VLIEGENDEKEEP\SOURCE\KBS_PROJECT_THOMAS_PAUL_TOM\USB2-C++\USBCONNECTION.CPP
/c /I"libusb-win32-bin-1.2.6.0\include" /IC:\OpenCV248\opencv\build\include /ZI /nologo /W3 /WX- /Od /Oy- /D WIN32 /D _DEBUG /D _CONSOLE /D _UNICODE /D UNICODE /Gm /EHsc /RTC1 /MDd /GS /fp:precise /Zc:wchar_t /Zc:forScope /Fo"DEBUG\\" /Fd"DEBUG\VC120.PDB" /Gd /TP /analyze- C:\USERS\PAUL VAN VULPEN\DROPBOX\WORKSPACE\C++\VLIEGENDEKEEP\SOURCE\KBS_PROJECT_THOMAS_PAUL_TOM\USB2-C++\USBCONNECTION.CPP
^C:\USERS\PAUL VAN VULPEN\DROPBOX\WORKSPACE\C++\VLIEGENDEKEEP\SOURCE\KBS_PROJECT_THOMAS_PAUL_TOM\USB2-C++\CVEXTENSION.CPP
/c /I"libusb-win32-bin-1.2.6.0\include" /IC:\OpenCV248\opencv\build\include /ZI /nologo /W3 /WX- /Od /Oy- /D WIN32 /D _DEBUG /D _CONSOLE /D _UNICODE /D UNICODE /Gm /EHsc /RTC1 /MDd /GS /fp:precise /Zc:wchar_t /Zc:forScope /Fo"DEBUG\\" /Fd"DEBUG\VC120.PDB" /Gd /TP /analyze- C:\USERS\PAUL VAN VULPEN\DROPBOX\WORKSPACE\C++\VLIEGENDEKEEP\SOURCE\KBS_PROJECT_THOMAS_PAUL_TOM\USB2-C++\CVEXTENSION.CPP
