^C:\USERS\PAUL VAN VULPEN\DROPBOX\WORKSPACE\C++\VLIEGENDEKEEP\SOURCE\KBS_PROJECT_THOMAS_PAUL_TOM\USB2-C++\BALLDETECTION.CPP|C:\USERS\PAUL VAN VULPEN\DROPBOX\WORKSPACE\C++\VLIEGENDEKEEP\SOURCE\KBS_PROJECT_THOMAS_PAUL_TOM\USB2-C++\MAIN.CPP|C:\USERS\PAUL VAN VULPEN\DROPBOX\WORKSPACE\C++\VLIEGENDEKEEP\SOURCE\KBS_PROJECT_THOMAS_PAUL_TOM\USB2-C++\SOURCE.CPP|C:\USERS\PAUL VAN VULPEN\DROPBOX\WORKSPACE\C++\VLIEGENDEKEEP\SOURCE\KBS_PROJECT_THOMAS_PAUL_TOM\USB2-C++\STDAFX.CPP
C:\USERS\PAUL VAN VULPEN\DROPBOX\WORKSPACE\C++\VLIEGENDEKEEP\SOURCE\KBS_PROJECT_THOMAS_PAUL_TOM\USB2-C++\DEBUG\VC120.PDB
C:\USERS\PAUL VAN VULPEN\DROPBOX\WORKSPACE\C++\VLIEGENDEKEEP\SOURCE\KBS_PROJECT_THOMAS_PAUL_TOM\USB2-C++\DEBUG\VC120.IDB
C:\USERS\PAUL VAN VULPEN\DROPBOX\WORKSPACE\C++\VLIEGENDEKEEP\SOURCE\KBS_PROJECT_THOMAS_PAUL_TOM\USB2-C++\DEBUG\BALLDETECTION.OBJ
C:\USERS\PAUL VAN VULPEN\DROPBOX\WORKSPACE\C++\VLIEGENDEKEEP\SOURCE\KBS_PROJECT_THOMAS_PAUL_TOM\USB2-C++\DEBUG\MAIN.OBJ
C:\USERS\PAUL VAN VULPEN\DROPBOX\WORKSPACE\C++\VLIEGENDEKEEP\SOURCE\KBS_PROJECT_THOMAS_PAUL_TOM\USB2-C++\DEBUG\SOURCE.OBJ
C:\USERS\PAUL VAN VULPEN\DROPBOX\WORKSPACE\C++\VLIEGENDEKEEP\SOURCE\KBS_PROJECT_THOMAS_PAUL_TOM\USB2-C++\DEBUG\STDAFX.OBJ
^C:\USERS\PAUL VAN VULPEN\DROPBOX\WORKSPACE\C++\VLIEGENDEKEEP\SOURCE\KBS_PROJECT_THOMAS_PAUL_TOM\USB2-C++\BALLDETECTION.CPP
C:\USERS\PAUL VAN VULPEN\DROPBOX\WORKSPACE\C++\VLIEGENDEKEEP\SOURCE\KBS_PROJECT_THOMAS_PAUL_TOM\USB2-C++\DEBUG\VC120.PDB
C:\USERS\PAUL VAN VULPEN\DROPBOX\WORKSPACE\C++\VLIEGENDEKEEP\SOURCE\KBS_PROJECT_THOMAS_PAUL_TOM\USB2-C++\DEBUG\VC120.IDB
C:\USERS\PAUL VAN VULPEN\DROPBOX\WORKSPACE\C++\VLIEGENDEKEEP\SOURCE\KBS_PROJECT_THOMAS_PAUL_TOM\USB2-C++\DEBUG\BALLDETECTION.OBJ
^C:\USERS\PAUL VAN VULPEN\DROPBOX\WORKSPACE\C++\VLIEGENDEKEEP\SOURCE\KBS_PROJECT_THOMAS_PAUL_TOM\USB2-C++\MAIN.CPP
C:\USERS\PAUL VAN VULPEN\DROPBOX\WORKSPACE\C++\VLIEGENDEKEEP\SOURCE\KBS_PROJECT_THOMAS_PAUL_TOM\USB2-C++\DEBUG\VC120.PDB
C:\USERS\PAUL VAN VULPEN\DROPBOX\WORKSPACE\C++\VLIEGENDEKEEP\SOURCE\KBS_PROJECT_THOMAS_PAUL_TOM\USB2-C++\DEBUG\VC120.IDB
^C:\USERS\PAUL VAN VULPEN\DROPBOX\WORKSPACE\C++\VLIEGENDEKEEP\SOURCE\KBS_PROJECT_THOMAS_PAUL_TOM\USB2-C++\SOURCE.CPP
C:\USERS\PAUL VAN VULPEN\DROPBOX\WORKSPACE\C++\VLIEGENDEKEEP\SOURCE\KBS_PROJECT_THOMAS_PAUL_TOM\USB2-C++\DEBUG\VC120.PDB
^C:\USERS\PAUL VAN VULPEN\DROPBOX\WORKSPACE\C++\VLIEGENDEKEEP\SOURCE\KBS_PROJECT_THOMAS_PAUL_TOM\USB2-C++\STDAFX.CPP
C:\USERS\PAUL VAN VULPEN\DROPBOX\WORKSPACE\C++\VLIEGENDEKEEP\SOURCE\KBS_PROJECT_THOMAS_PAUL_TOM\USB2-C++\DEBUG\VC120.PDB
^C:\USERS\PAUL VAN VULPEN\DROPBOX\WORKSPACE\C++\VLIEGENDEKEEP\SOURCE\KBS_PROJECT_THOMAS_PAUL_TOM\USB2-C++\BALLDETECTION.CPP|C:\USERS\PAUL VAN VULPEN\DROPBOX\WORKSPACE\C++\VLIEGENDEKEEP\SOURCE\KBS_PROJECT_THOMAS_PAUL_TOM\USB2-C++\MAIN.CPP
C:\USERS\PAUL VAN VULPEN\DROPBOX\WORKSPACE\C++\VLIEGENDEKEEP\SOURCE\KBS_PROJECT_THOMAS_PAUL_TOM\USB2-C++\DEBUG\VC120.PDB
C:\USERS\PAUL VAN VULPEN\DROPBOX\WORKSPACE\C++\VLIEGENDEKEEP\SOURCE\KBS_PROJECT_THOMAS_PAUL_TOM\USB2-C++\DEBUG\VC120.IDB
C:\USERS\PAUL VAN VULPEN\DROPBOX\WORKSPACE\C++\VLIEGENDEKEEP\SOURCE\KBS_PROJECT_THOMAS_PAUL_TOM\USB2-C++\DEBUG\MAIN.OBJ
C:\USERS\PAUL VAN VULPEN\DROPBOX\WORKSPACE\C++\VLIEGENDEKEEP\SOURCE\KBS_PROJECT_THOMAS_PAUL_TOM\USB2-C++\DEBUG\BALLDETECTION.OBJ
^C:\USERS\PAUL VAN VULPEN\DROPBOX\WORKSPACE\C++\VLIEGENDEKEEP\SOURCE\KBS_PROJECT_THOMAS_PAUL_TOM\USB2-C++\BALLDETECTION.CPP|C:\USERS\PAUL VAN VULPEN\DROPBOX\WORKSPACE\C++\VLIEGENDEKEEP\SOURCE\KBS_PROJECT_THOMAS_PAUL_TOM\USB2-C++\MAIN.CPP|C:\USERS\PAUL VAN VULPEN\DROPBOX\WORKSPACE\C++\VLIEGENDEKEEP\SOURCE\KBS_PROJECT_THOMAS_PAUL_TOM\USB2-C++\USBCONNECTION.CPP
C:\USERS\PAUL VAN VULPEN\DROPBOX\WORKSPACE\C++\VLIEGENDEKEEP\SOURCE\KBS_PROJECT_THOMAS_PAUL_TOM\USB2-C++\DEBUG\VC120.PDB
C:\USERS\PAUL VAN VULPEN\DROPBOX\WORKSPACE\C++\VLIEGENDEKEEP\SOURCE\KBS_PROJECT_THOMAS_PAUL_TOM\USB2-C++\DEBUG\VC120.IDB
C:\USERS\PAUL VAN VULPEN\DROPBOX\WORKSPACE\C++\VLIEGENDEKEEP\SOURCE\KBS_PROJECT_THOMAS_PAUL_TOM\USB2-C++\DEBUG\USBCONNECTION.OBJ
C:\USERS\PAUL VAN VULPEN\DROPBOX\WORKSPACE\C++\VLIEGENDEKEEP\SOURCE\KBS_PROJECT_THOMAS_PAUL_TOM\USB2-C++\DEBUG\MAIN.OBJ
^C:\USERS\PAUL VAN VULPEN\DROPBOX\WORKSPACE\C++\VLIEGENDEKEEP\SOURCE\KBS_PROJECT_THOMAS_PAUL_TOM\USB2-C++\USBCONNECTION.CPP
C:\USERS\PAUL VAN VULPEN\DROPBOX\WORKSPACE\C++\VLIEGENDEKEEP\SOURCE\KBS_PROJECT_THOMAS_PAUL_TOM\USB2-C++\DEBUG\VC120.PDB
C:\USERS\PAUL VAN VULPEN\DROPBOX\WORKSPACE\C++\VLIEGENDEKEEP\SOURCE\KBS_PROJECT_THOMAS_PAUL_TOM\USB2-C++\DEBUG\VC120.IDB
C:\USERS\PAUL VAN VULPEN\DROPBOX\WORKSPACE\C++\VLIEGENDEKEEP\SOURCE\KBS_PROJECT_THOMAS_PAUL_TOM\USB2-C++\DEBUG\USBCONNECTION.OBJ
^C:\USERS\PAUL VAN VULPEN\DROPBOX\WORKSPACE\C++\VLIEGENDEKEEP\SOURCE\KBS_PROJECT_THOMAS_PAUL_TOM\USB2-C++\MAIN.CPP|C:\USERS\PAUL VAN VULPEN\DROPBOX\WORKSPACE\C++\VLIEGENDEKEEP\SOURCE\KBS_PROJECT_THOMAS_PAUL_TOM\USB2-C++\USBCONNECTION.CPP
C:\USERS\PAUL VAN VULPEN\DROPBOX\WORKSPACE\C++\VLIEGENDEKEEP\SOURCE\KBS_PROJECT_THOMAS_PAUL_TOM\USB2-C++\DEBUG\VC120.PDB
C:\USERS\PAUL VAN VULPEN\DROPBOX\WORKSPACE\C++\VLIEGENDEKEEP\SOURCE\KBS_PROJECT_THOMAS_PAUL_TOM\USB2-C++\DEBUG\VC120.IDB
C:\USERS\PAUL VAN VULPEN\DROPBOX\WORKSPACE\C++\VLIEGENDEKEEP\SOURCE\KBS_PROJECT_THOMAS_PAUL_TOM\USB2-C++\DEBUG\MAIN.OBJ
C:\USERS\PAUL VAN VULPEN\DROPBOX\WORKSPACE\C++\VLIEGENDEKEEP\SOURCE\KBS_PROJECT_THOMAS_PAUL_TOM\USB2-C++\DEBUG\USBCONNECTION.OBJ
^C:\USERS\PAUL VAN VULPEN\DROPBOX\WORKSPACE\C++\VLIEGENDEKEEP\SOURCE\KBS_PROJECT_THOMAS_PAUL_TOM\USB2-C++\BALLDETECTION.CPP|C:\USERS\PAUL VAN VULPEN\DROPBOX\WORKSPACE\C++\VLIEGENDEKEEP\SOURCE\KBS_PROJECT_THOMAS_PAUL_TOM\USB2-C++\CVEXTENSION.CPP|C:\USERS\PAUL VAN VULPEN\DROPBOX\WORKSPACE\C++\VLIEGENDEKEEP\SOURCE\KBS_PROJECT_THOMAS_PAUL_TOM\USB2-C++\MAIN.CPP
C:\USERS\PAUL VAN VULPEN\DROPBOX\WORKSPACE\C++\VLIEGENDEKEEP\SOURCE\KBS_PROJECT_THOMAS_PAUL_TOM\USB2-C++\DEBUG\VC120.PDB
C:\USERS\PAUL VAN VULPEN\DROPBOX\WORKSPACE\C++\VLIEGENDEKEEP\SOURCE\KBS_PROJECT_THOMAS_PAUL_TOM\USB2-C++\DEBUG\VC120.IDB
C:\USERS\PAUL VAN VULPEN\DROPBOX\WORKSPACE\C++\VLIEGENDEKEEP\SOURCE\KBS_PROJECT_THOMAS_PAUL_TOM\USB2-C++\DEBUG\MAIN.OBJ
^C:\USERS\PAUL VAN VULPEN\DROPBOX\WORKSPACE\C++\VLIEGENDEKEEP\SOURCE\KBS_PROJECT_THOMAS_PAUL_TOM\USB2-C++\CVEXTENSION.CPP
C:\USERS\PAUL VAN VULPEN\DROPBOX\WORKSPACE\C++\VLIEGENDEKEEP\SOURCE\KBS_PROJECT_THOMAS_PAUL_TOM\USB2-C++\DEBUG\VC120.PDB
C:\USERS\PAUL VAN VULPEN\DROPBOX\WORKSPACE\C++\VLIEGENDEKEEP\SOURCE\KBS_PROJECT_THOMAS_PAUL_TOM\USB2-C++\DEBUG\VC120.IDB
C:\USERS\PAUL VAN VULPEN\DROPBOX\WORKSPACE\C++\VLIEGENDEKEEP\SOURCE\KBS_PROJECT_THOMAS_PAUL_TOM\USB2-C++\DEBUG\CVEXTENSION.OBJ
^C:\USERS\PAUL VAN VULPEN\DROPBOX\WORKSPACE\C++\VLIEGENDEKEEP\SOURCE\KBS_PROJECT_THOMAS_PAUL_TOM\USB2-C++\BALLDETECTION.CPP|C:\USERS\PAUL VAN VULPEN\DROPBOX\WORKSPACE\C++\VLIEGENDEKEEP\SOURCE\KBS_PROJECT_THOMAS_PAUL_TOM\USB2-C++\CVEXTENSION.CPP
C:\USERS\PAUL VAN VULPEN\DROPBOX\WORKSPACE\C++\VLIEGENDEKEEP\SOURCE\KBS_PROJECT_THOMAS_PAUL_TOM\USB2-C++\DEBUG\VC120.PDB
C:\USERS\PAUL VAN VULPEN\DROPBOX\WORKSPACE\C++\VLIEGENDEKEEP\SOURCE\KBS_PROJECT_THOMAS_PAUL_TOM\USB2-C++\DEBUG\VC120.IDB
C:\USERS\PAUL VAN VULPEN\DROPBOX\WORKSPACE\C++\VLIEGENDEKEEP\SOURCE\KBS_PROJECT_THOMAS_PAUL_TOM\USB2-C++\DEBUG\CVEXTENSION.OBJ
C:\USERS\PAUL VAN VULPEN\DROPBOX\WORKSPACE\C++\VLIEGENDEKEEP\SOURCE\KBS_PROJECT_THOMAS_PAUL_TOM\USB2-C++\DEBUG\BALLDETECTION.OBJ
^C:\USERS\PAUL VAN VULPEN\DROPBOX\WORKSPACE\C++\VLIEGENDEKEEP\SOURCE\KBS_PROJECT_THOMAS_PAUL_TOM\USB2-C++\BALLDETECTION.CPP|C:\USERS\PAUL VAN VULPEN\DROPBOX\WORKSPACE\C++\VLIEGENDEKEEP\SOURCE\KBS_PROJECT_THOMAS_PAUL_TOM\USB2-C++\CVEXTENSION.CPP|C:\USERS\PAUL VAN VULPEN\DROPBOX\WORKSPACE\C++\VLIEGENDEKEEP\SOURCE\KBS_PROJECT_THOMAS_PAUL_TOM\USB2-C++\MAIN.CPP|C:\USERS\PAUL VAN VULPEN\DROPBOX\WORKSPACE\C++\VLIEGENDEKEEP\SOURCE\KBS_PROJECT_THOMAS_PAUL_TOM\USB2-C++\STDAFX.CPP|C:\USERS\PAUL VAN VULPEN\DROPBOX\WORKSPACE\C++\VLIEGENDEKEEP\SOURCE\KBS_PROJECT_THOMAS_PAUL_TOM\USB2-C++\USBCONNECTION.CPP
C:\USERS\PAUL VAN VULPEN\DROPBOX\WORKSPACE\C++\VLIEGENDEKEEP\SOURCE\KBS_PROJECT_THOMAS_PAUL_TOM\USB2-C++\DEBUG\VC120.PDB
C:\USERS\PAUL VAN VULPEN\DROPBOX\WORKSPACE\C++\VLIEGENDEKEEP\SOURCE\KBS_PROJECT_THOMAS_PAUL_TOM\USB2-C++\DEBUG\VC120.IDB
C:\USERS\PAUL VAN VULPEN\DROPBOX\WORKSPACE\C++\VLIEGENDEKEEP\SOURCE\KBS_PROJECT_THOMAS_PAUL_TOM\USB2-C++\DEBUG\BALLDETECTION.OBJ
C:\USERS\PAUL VAN VULPEN\DROPBOX\WORKSPACE\C++\VLIEGENDEKEEP\SOURCE\KBS_PROJECT_THOMAS_PAUL_TOM\USB2-C++\DEBUG\CVEXTENSION.OBJ
C:\USERS\PAUL VAN VULPEN\DROPBOX\WORKSPACE\C++\VLIEGENDEKEEP\SOURCE\KBS_PROJECT_THOMAS_PAUL_TOM\USB2-C++\DEBUG\MAIN.OBJ
C:\USERS\PAUL VAN VULPEN\DROPBOX\WORKSPACE\C++\VLIEGENDEKEEP\SOURCE\KBS_PROJECT_THOMAS_PAUL_TOM\USB2-C++\DEBUG\STDAFX.OBJ
C:\USERS\PAUL VAN VULPEN\DROPBOX\WORKSPACE\C++\VLIEGENDEKEEP\SOURCE\KBS_PROJECT_THOMAS_PAUL_TOM\USB2-C++\DEBUG\USBCONNECTION.OBJ
