^C:\USERS\PAUL VAN VULPEN\DROPBOX\WORKSPACE\C++\VLIEGENDEKEEP\SOURCE\KBS_PROJECT_THOMAS_PAUL_TOM\USB2-C++\DEBUG\BALLDETECTION.OBJ|C:\USERS\PAUL VAN VULPEN\DROPBOX\WORKSPACE\C++\VLIEGENDEKEEP\SOURCE\KBS_PROJECT_THOMAS_PAUL_TOM\USB2-C++\DEBUG\CVEXTENSION.OBJ|C:\USERS\PAUL VAN VULPEN\DROPBOX\WORKSPACE\C++\VLIEGENDEKEEP\SOURCE\KBS_PROJECT_THOMAS_PAUL_TOM\USB2-C++\DEBUG\MAIN.OBJ|C:\USERS\PAUL VAN VULPEN\DROPBOX\WORKSPACE\C++\VLIEGENDEKEEP\SOURCE\KBS_PROJECT_THOMAS_PAUL_TOM\USB2-C++\DEBUG\SOURCE.OBJ|C:\USERS\PAUL VAN VULPEN\DROPBOX\WORKSPACE\C++\VLIEGENDEKEEP\SOURCE\KBS_PROJECT_THOMAS_PAUL_TOM\USB2-C++\DEBUG\STDAFX.OBJ|C:\USERS\PAUL VAN VULPEN\DROPBOX\WORKSPACE\C++\VLIEGENDEKEEP\SOURCE\KBS_PROJECT_THOMAS_PAUL_TOM\USB2-C++\DEBUG\USBCONNECTION.OBJ
C:\USERS\PAUL VAN VULPEN\DROPBOX\WORKSPACE\C++\VLIEGENDEKEEP\SOURCE\KBS_PROJECT_THOMAS_PAUL_TOM\USB2-C++\LIBUSB-WIN32-BIN-1.2.6.0\LIB\MSVC\LIBUSB.LIB
C:\OPENCV248\OPENCV\BUILD\X86\VC12\LIB\OPENCV_CALIB3D248D.LIB
C:\OPENCV248\OPENCV\BUILD\X86\VC12\LIB\OPENCV_CONTRIB248D.LIB
C:\OPENCV248\OPENCV\BUILD\X86\VC12\LIB\OPENCV_CORE248D.LIB
C:\OPENCV248\OPENCV\BUILD\X86\VC12\LIB\OPENCV_FEATURES2D248D.LIB
C:\OPENCV248\OPENCV\BUILD\X86\VC12\LIB\OPENCV_FLANN248D.LIB
C:\OPENCV248\OPENCV\BUILD\X86\VC12\LIB\OPENCV_GPU248D.LIB
C:\OPENCV248\OPENCV\BUILD\X86\VC12\LIB\OPENCV_HIGHGUI248D.LIB
C:\OPENCV248\OPENCV\BUILD\X86\VC12\LIB\OPENCV_IMGPROC248D.LIB
C:\OPENCV248\OPENCV\BUILD\X86\VC12\LIB\OPENCV_LEGACY248D.LIB
C:\OPENCV248\OPENCV\BUILD\X86\VC12\LIB\OPENCV_ML248D.LIB
C:\OPENCV248\OPENCV\BUILD\X86\VC12\LIB\OPENCV_NONFREE248D.LIB
C:\OPENCV248\OPENCV\BUILD\X86\VC12\LIB\OPENCV_OBJDETECT248D.LIB
C:\OPENCV248\OPENCV\BUILD\X86\VC12\LIB\OPENCV_OCL248D.LIB
C:\OPENCV248\OPENCV\BUILD\X86\VC12\LIB\OPENCV_PHOTO248D.LIB
C:\OPENCV248\OPENCV\BUILD\X86\VC12\LIB\OPENCV_STITCHING248D.LIB
C:\OPENCV248\OPENCV\BUILD\X86\VC12\LIB\OPENCV_SUPERRES248D.LIB
C:\OPENCV248\OPENCV\BUILD\X86\VC12\LIB\OPENCV_TS248D.LIB
C:\OPENCV248\OPENCV\BUILD\X86\VC12\LIB\OPENCV_VIDEO248D.LIB
C:\OPENCV248\OPENCV\BUILD\X86\VC12\LIB\OPENCV_VIDEOSTAB248D.LIB
C:\PROGRAM FILES (X86)\WINDOWS KITS\8.1\LIB\WINV6.3\UM\X86\KERNEL32.LIB
C:\PROGRAM FILES (X86)\WINDOWS KITS\8.1\LIB\WINV6.3\UM\X86\USER32.LIB
C:\PROGRAM FILES (X86)\WINDOWS KITS\8.1\LIB\WINV6.3\UM\X86\GDI32.LIB
C:\PROGRAM FILES (X86)\WINDOWS KITS\8.1\LIB\WINV6.3\UM\X86\WINSPOOL.LIB
C:\PROGRAM FILES (X86)\WINDOWS KITS\8.1\LIB\WINV6.3\UM\X86\COMDLG32.LIB
C:\PROGRAM FILES (X86)\WINDOWS KITS\8.1\LIB\WINV6.3\UM\X86\ADVAPI32.LIB
C:\PROGRAM FILES (X86)\WINDOWS KITS\8.1\LIB\WINV6.3\UM\X86\SHELL32.LIB
C:\PROGRAM FILES (X86)\WINDOWS KITS\8.1\LIB\WINV6.3\UM\X86\OLE32.LIB
C:\PROGRAM FILES (X86)\WINDOWS KITS\8.1\LIB\WINV6.3\UM\X86\OLEAUT32.LIB
C:\PROGRAM FILES (X86)\WINDOWS KITS\8.1\LIB\WINV6.3\UM\X86\UUID.LIB
C:\PROGRAM FILES (X86)\WINDOWS KITS\8.1\LIB\WINV6.3\UM\X86\ODBC32.LIB
C:\PROGRAM FILES (X86)\WINDOWS KITS\8.1\LIB\WINV6.3\UM\X86\ODBCCP32.LIB
C:\USERS\PAUL VAN VULPEN\DROPBOX\WORKSPACE\C++\VLIEGENDEKEEP\SOURCE\KBS_PROJECT_THOMAS_PAUL_TOM\USB2-C++\DEBUG\BALLDETECTION.OBJ
C:\USERS\PAUL VAN VULPEN\DROPBOX\WORKSPACE\C++\VLIEGENDEKEEP\SOURCE\KBS_PROJECT_THOMAS_PAUL_TOM\USB2-C++\DEBUG\CVEXTENSION.OBJ
C:\USERS\PAUL VAN VULPEN\DROPBOX\WORKSPACE\C++\VLIEGENDEKEEP\SOURCE\KBS_PROJECT_THOMAS_PAUL_TOM\USB2-C++\DEBUG\MAIN.OBJ
C:\USERS\PAUL VAN VULPEN\DROPBOX\WORKSPACE\C++\VLIEGENDEKEEP\SOURCE\KBS_PROJECT_THOMAS_PAUL_TOM\USB2-C++\DEBUG\SOURCE.OBJ
C:\USERS\PAUL VAN VULPEN\DROPBOX\WORKSPACE\C++\VLIEGENDEKEEP\SOURCE\KBS_PROJECT_THOMAS_PAUL_TOM\USB2-C++\DEBUG\STDAFX.OBJ
C:\USERS\PAUL VAN VULPEN\DROPBOX\WORKSPACE\C++\VLIEGENDEKEEP\SOURCE\KBS_PROJECT_THOMAS_PAUL_TOM\USB2-C++\DEBUG\USBCONNECTION.OBJ
C:\WINDOWS\SYSTEM32\TZRES.DLL
C:\WINDOWS\GLOBALIZATION\SORTING\SORTDEFAULT.NLS
C:\PROGRAM FILES (X86)\MICROSOFT VISUAL STUDIO 12.0\VC\LIB\MSVCPRTD.LIB
C:\PROGRAM FILES (X86)\MICROSOFT VISUAL STUDIO 12.0\VC\LIB\MSVCRTD.LIB
C:\PROGRAM FILES (X86)\MICROSOFT VISUAL STUDIO 12.0\VC\LIB\OLDNAMES.LIB
