^C:\USERS\PAUL VAN VULPEN\DROPBOX\WORKSPACE\C++\VLIEGENDEKEEP\SOURCE\KBS_PROJECT_THOMAS_PAUL_TOM\USB2-C++\DEBUG\BALLDETECTION.OBJ|C:\USERS\PAUL VAN VULPEN\DROPBOX\WORKSPACE\C++\VLIEGENDEKEEP\SOURCE\KBS_PROJECT_THOMAS_PAUL_TOM\USB2-C++\DEBUG\CVEXTENSION.OBJ|C:\USERS\PAUL VAN VULPEN\DROPBOX\WORKSPACE\C++\VLIEGENDEKEEP\SOURCE\KBS_PROJECT_THOMAS_PAUL_TOM\USB2-C++\DEBUG\MAIN.OBJ|C:\USERS\PAUL VAN VULPEN\DROPBOX\WORKSPACE\C++\VLIEGENDEKEEP\SOURCE\KBS_PROJECT_THOMAS_PAUL_TOM\USB2-C++\DEBUG\SOURCE.OBJ|C:\USERS\PAUL VAN VULPEN\DROPBOX\WORKSPACE\C++\VLIEGENDEKEEP\SOURCE\KBS_PROJECT_THOMAS_PAUL_TOM\USB2-C++\DEBUG\STDAFX.OBJ|C:\USERS\PAUL VAN VULPEN\DROPBOX\WORKSPACE\C++\VLIEGENDEKEEP\SOURCE\KBS_PROJECT_THOMAS_PAUL_TOM\USB2-C++\DEBUG\USBCONNECTION.OBJ
C:\USERS\PAUL VAN VULPEN\DROPBOX\WORKSPACE\C++\VLIEGENDEKEEP\SOURCE\KBS_PROJECT_THOMAS_PAUL_TOM\USB2-C++\DEBUG\USB2.ILK
C:\USERS\PAUL VAN VULPEN\DROPBOX\WORKSPACE\C++\VLIEGENDEKEEP\SOURCE\KBS_PROJECT_THOMAS_PAUL_TOM\USB2-C++\DEBUG\USB2.EXE
C:\USERS\PAUL VAN VULPEN\DROPBOX\WORKSPACE\C++\VLIEGENDEKEEP\SOURCE\KBS_PROJECT_THOMAS_PAUL_TOM\USB2-C++\DEBUG\USB2.PDB
